%YAML 1.1
%TAG !u! tag:unity3d.com,2011:
--- !u!114 &11400000
MonoBehaviour:
  m_ObjectHideFlags: 0
  m_CorrespondingSourceObject: {fileID: 0}
  m_PrefabInstance: {fileID: 0}
  m_PrefabAsset: {fileID: 0}
  m_GameObject: {fileID: 0}
  m_Enabled: 1
  m_EditorHideFlags: 0
  m_Script: {fileID: 11500000, guid: f8ded4e7a0ffa93429430dc715543439, type: 3}
  m_Name: Enemy_Kamikaze_Data
  m_EditorClassIdentifier: 
  hp: 10
  moveSpeed: 2
  shootSpeed: 0
  damage: 30
  minRange: 0
  maxRange: 10
  coolDownRange: 0
  dropeableItems:
  - {fileID: 974027981585523006, guid: 92bc188caf92f6849a649280ceefdb34, type: 3}
  punctuation: 20
